%!PS-Adobe-3.0 EPSF-3.0
%%Creator: cairo 1.15.10 (http://cairographics.org)
%%CreationDate: Fri Jul  3 11:10:48 2020
%%Pages: 1
%%DocumentData: Clean7Bit
%%LanguageLevel: 2
%%BoundingBox: 0 0 61 12
%%EndComments
%%BeginProlog
50 dict begin
/q { gsave } bind def
/Q { grestore } bind def
/cm { 6 array astore concat } bind def
/w { setlinewidth } bind def
/J { setlinecap } bind def
/j { setlinejoin } bind def
/M { setmiterlimit } bind def
/d { setdash } bind def
/m { moveto } bind def
/l { lineto } bind def
/c { curveto } bind def
/h { closepath } bind def
/re { exch dup neg 3 1 roll 5 3 roll moveto 0 rlineto
      0 exch rlineto 0 rlineto closepath } bind def
/S { stroke } bind def
/f { fill } bind def
/f* { eofill } bind def
/n { newpath } bind def
/W { clip } bind def
/W* { eoclip } bind def
/BT { } bind def
/ET { } bind def
/BDC { mark 3 1 roll /BDC pdfmark } bind def
/EMC { mark /EMC pdfmark } bind def
/cairo_store_point { /cairo_point_y exch def /cairo_point_x exch def } def
/Tj { show currentpoint cairo_store_point } bind def
/TJ {
  {
    dup
    type /stringtype eq
    { show } { -0.001 mul 0 cairo_font_matrix dtransform rmoveto } ifelse
  } forall
  currentpoint cairo_store_point
} bind def
/cairo_selectfont { cairo_font_matrix aload pop pop pop 0 0 6 array astore
    cairo_font exch selectfont cairo_point_x cairo_point_y moveto } bind def
/Tf { pop /cairo_font exch def /cairo_font_matrix where
      { pop cairo_selectfont } if } bind def
/Td { matrix translate cairo_font_matrix matrix concatmatrix dup
      /cairo_font_matrix exch def dup 4 get exch 5 get cairo_store_point
      /cairo_font where { pop cairo_selectfont } if } bind def
/Tm { 2 copy 8 2 roll 6 array astore /cairo_font_matrix exch def
      cairo_store_point /cairo_font where { pop cairo_selectfont } if } bind def
/g { setgray } bind def
/rg { setrgbcolor } bind def
/d1 { setcachedevice } bind def
/cairo_data_source {
  CairoDataIndex CairoData length lt
    { CairoData CairoDataIndex get /CairoDataIndex CairoDataIndex 1 add def }
    { () } ifelse
} def
/cairo_flush_ascii85_file { cairo_ascii85_file status { cairo_ascii85_file flushfile } if } def
/cairo_image { image cairo_flush_ascii85_file } def
/cairo_imagemask { imagemask cairo_flush_ascii85_file } def
%%EndProlog
%%BeginSetup
%%EndSetup
%%Page: 1 1
%%BeginPageSetup
%%PageBoundingBox: 0 0 61 12
%%EndPageSetup
q 0 0 61 12 rectclip
1 0 0 -1 0 12 cm q
1 g
0.387 0.363 59.25 10.5 re f
0 g
0.77145 w
0 J
0 j
[] 0.0 d
4 M q 1 0 0 0.945165 0 0 cm
0.387 0.384 59.25 11.109 re S Q
1.496 1.414 57.027 8.402 re f
0.670588 0.694118 0.666667 rg
1.496 1.422 m 1.496 9.824 l 16.559 9.824 l 17.527 8.598 18.18 7.176 18.18
 5.625 c 18.18 4.082 17.539 2.645 16.582 1.422 c h
1.496 1.422 m f
Q q
1.621 1.414 14.676 8.402 re W n
q
1 1 16 9 re W n
[ 1 0 0 1 0 0 ] concat
  q
1 g
14.484 5.613 m 14.484 8.234 12.238 10.359 9.469 10.359 c 6.699 10.359 4.449
 8.238 4.449 5.621 c 4.449 5.617 4.449 5.617 4.449 5.613 c 4.449 2.996 6.691
 0.871 9.461 0.871 c 12.234 0.867 14.48 2.988 14.484 5.609 c 14.484 5.609
 14.484 5.613 14.484 5.613 c h
14.484 5.613 m f
0 g
13.543 1.754 m 14.656 2.805 15.215 4.09 15.215 5.613 c 15.215 7.137 14.668
 8.41 13.574 9.438 c 12.414 10.516 11.043 11.055 9.457 11.055 c 7.895 11.055
 6.547 10.52 5.418 9.449 c 4.285 8.379 3.719 7.102 3.719 5.613 c 3.719 4.129
 4.285 2.84 5.418 1.754 c 6.52 0.699 7.867 0.176 9.457 0.176 c 11.07 0.176
 12.434 0.699 13.543 1.754 c h
6.164 2.461 m 5.223 3.359 4.754 4.41 4.754 5.617 c 4.754 6.824 5.219 7.867
 6.152 8.746 c 7.082 9.625 8.191 10.066 9.477 10.066 c 10.762 10.066 11.879
 9.621 12.828 8.73 c 13.73 7.906 14.184 6.867 14.184 5.617 c 14.184 4.375
 13.723 3.32 12.809 2.453 c 11.891 1.586 10.781 1.152 9.477 1.152 c 8.172
 1.152 7.066 1.59 6.164 2.461 c h
8.641 5.086 m 8.496 4.789 8.281 4.641 7.996 4.641 c 7.488 4.641 7.234 4.965
 7.234 5.609 c 7.234 6.254 7.488 6.578 7.996 6.578 c 8.328 6.578 8.57 6.422
 8.711 6.105 c 9.414 6.461 l 9.082 7.023 8.578 7.305 7.906 7.305 c 7.391
 7.305 6.977 7.152 6.664 6.855 c 6.352 6.555 6.199 6.141 6.199 5.613 c 6.199
 5.098 6.359 4.688 6.68 4.383 c 7 4.078 7.398 3.926 7.879 3.926 c 8.586 
3.926 9.094 4.191 9.402 4.719 c h
11.949 5.086 m 11.805 4.789 11.594 4.641 11.316 4.641 c 10.797 4.641 10.539
 4.965 10.539 5.609 c 10.539 6.254 10.797 6.578 11.316 6.578 c 11.652 6.578
 11.887 6.422 12.02 6.105 c 12.738 6.461 l 12.402 7.023 11.902 7.305 11.234
 7.305 c 10.715 7.305 10.305 7.152 9.992 6.855 c 9.684 6.555 9.527 6.141
 9.527 5.613 c 9.527 5.098 9.684 4.688 10 4.383 c 10.316 4.078 10.715 3.926
 11.203 3.926 c 11.91 3.926 12.418 4.191 12.723 4.719 c h
11.949 5.086 m f
  Q
Q
Q q
1 g
21.805 5.141 m 21.984 5.141 22.125 5.102 22.219 5.027 c 22.312 4.953 22.359
 4.844 22.359 4.695 c 22.359 4.551 22.312 4.441 22.219 4.367 c 22.125 4.289
 21.984 4.25 21.805 4.25 c 21.168 4.25 l 21.168 5.141 l 21.805 5.141 l 21.844
 6.977 m 22.074 6.977 22.25 6.934 22.363 6.84 c 22.484 6.746 22.543 6.609
 22.543 6.422 c 22.543 6.242 22.484 6.105 22.367 6.016 c 22.25 5.922 22.078
 5.879 21.844 5.879 c 21.168 5.879 l 21.168 6.977 l 21.844 6.977 l 22.918
 5.469 m 23.164 5.535 23.355 5.66 23.492 5.84 c 23.629 6.023 23.695 6.246
 23.695 6.512 c 23.695 6.914 23.551 7.219 23.258 7.418 c 22.965 7.617 22.523
 7.715 21.926 7.715 c 20.012 7.715 l 20.012 3.516 l 21.746 3.516 l 22.367
 3.516 22.816 3.602 23.094 3.777 c 23.371 3.957 23.512 4.238 23.512 4.625
 c 23.512 4.832 23.461 5.004 23.359 5.148 c 23.258 5.293 23.109 5.398 22.918
 5.469 c 23.594 3.516 m 24.855 3.516 l 25.875 5.012 l 26.895 3.516 l 28.16
 3.516 l 26.453 5.945 l 26.453 7.715 l 25.301 7.715 l 25.301 5.945 l 23.594
 3.516 l f
Q Q
showpage
%%Trailer
end
%%EOF
